<?xml version="1.0" standalone="no"?>
<!DOCTYPE svg PUBLIC "-//W3C//DTD SVG 1.1//EN" "http://www.w3.org/Graphics/SVG/1.1/DTD/svg11.dtd" >
<svg xmlns="http://www.w3.org/2000/svg">
<metadata>Generated by IcoMoon</metadata>
<defs>
<font id="bestprice" horiz-adv-x="512">
<font-face units-per-em="512" ascent="480" descent="-32" />
<missing-glyph horiz-adv-x="512" />
<glyph unicode="&#x20;" d="" horiz-adv-x="256" />
<glyph unicode="&#xe600;" d="M256 476.185c-135.526 0-245.76-110.285-245.76-245.785 0-135.527 110.234-245.786 245.76-245.786s245.76 110.259 245.76 245.786c0 135.501-110.233 245.785-245.76 245.785zM465.613 230.4c0-47.949-16.281-92.186-43.418-127.514-7.68 6.016-15.821 22.221-8.141 39.014 7.731 16.896 9.753 56.013 7.987 71.219-1.69 15.207-9.6 51.866-31.104 52.224-21.427 0.333-36.147 7.399-48.896 32.845-26.445 52.915 49.639 63.104 23.194 92.416-7.399 8.218-45.645-33.894-51.251 22.221-0.384 4.019 3.456 10.035 8.576 16.256 83.046-27.904 143.053-106.393 143.053-198.681zM227.2 437.913c-4.992-9.728-18.227-13.721-26.291-21.069-17.485-15.821-25.011-13.645-34.458-28.851-9.472-15.207-40.090-37.095-40.090-48.103 0-10.983 15.462-23.987 23.194-21.453 7.731 2.56 28.109 2.407 40.089-1.792 12.006-4.25 100.224-8.474 72.089-83.047-8.909-23.706-47.923-19.712-58.317-58.983-1.561-5.76-6.938-30.361-7.322-38.4-0.614-12.442 8.806-59.341-3.2-59.341-12.058 0-44.467 41.959-44.467 49.562s-8.423 34.279-8.423 57.088-38.835 22.451-38.835 52.787c0 27.392 21.069 41.011 16.333 54.093-4.659 13.056-41.651 13.517-57.063 15.104 26.931 69.939 90.343 121.856 166.758 132.403zM190.080 31.488c12.595 6.63 13.875 15.232 25.293 15.693 13.056 0.563 23.68 5.094 38.374 8.32 13.082 2.841 36.429 16.103 57.037 17.792 17.331 1.433 51.584-0.896 60.8-17.639-33.178-22.016-72.909-34.867-115.584-34.867-23.040 0-45.184 3.789-65.92 10.701z" />
<glyph unicode="&#xe601;" d="M252.877 465.894c-130.073-1.741-234.112-108.595-232.371-238.669 1.741-129.997 108.595-234.061 238.669-232.32 130.022 1.741 234.087 108.595 232.32 238.669-1.715 130.022-108.57 234.061-238.618 232.32zM252.185 87.040h-1.305c-20.019 0.589-34.15 15.36-33.587 35.097 0.563 19.379 15.027 33.485 34.406 33.485l1.178-0.026c20.582-0.615 34.56-15.232 33.945-35.533-0.563-19.43-14.822-33.024-34.637-33.024zM336.435 254.259c-4.736-6.681-15.079-15.001-28.135-25.165l-14.387-9.933c-7.885-6.144-12.647-11.904-14.413-17.562-1.433-4.505-2.099-5.658-2.227-14.745l-0.026-2.329h-54.861l0.154 4.659c0.666 19.098 1.152 30.31 9.063 39.603 12.416 14.566 39.808 32.205 40.96 32.947 3.917 2.969 7.219 6.323 9.702 9.907 5.76 7.936 8.294 14.208 8.294 20.327 0 8.525-2.534 16.41-7.526 23.424-4.813 6.784-13.952 10.214-27.161 10.214-13.107 0-22.067-4.173-27.443-12.697-5.555-8.781-8.32-17.971-8.32-27.392v-2.355h-56.576l0.102 2.457c1.459 34.663 13.824 59.597 36.761 74.163 14.387 9.293 32.307 13.978 53.197 13.978 27.366 0 50.509-6.656 68.685-19.763 18.432-13.287 27.776-33.203 27.776-59.162 0-14.541-4.582-28.185-13.619-40.576z" />
<glyph unicode="&#xe604;" d="M292.787 370.791c-10.701-10.445-115.251-120.218-115.251-120.218-5.709-5.581-8.55-12.877-8.55-20.173s2.841-14.592 8.55-20.173c0 0 104.551-109.773 115.251-120.192 10.701-10.445 29.952-11.161 41.37 0 11.392 11.136 12.288 26.675-0.026 40.32l-95.923 100.045 95.923 100.045c12.313 13.67 11.418 29.209 0.026 40.345-11.443 11.136-30.695 10.445-41.37 0z" />
<glyph unicode="&#xe605;" d="M367.334 149.709l-70.605 80.691 70.605 80.691c12.007 12.007 12.007 31.463 0 43.443s-31.462 11.981-43.443 0l-67.891-77.593-67.865 77.568c-12.006 12.006-31.463 12.006-43.443 0s-11.981-31.463 0-43.443l70.579-80.666-70.605-80.691c-11.981-12.007-11.981-31.411 0-43.392 12.006-12.007 31.463-12.007 43.443 0l67.891 77.543 67.865-77.543c12.007-12.007 31.462-12.007 43.443 0s12.007 31.385 0.026 43.392z" />
<glyph unicode="&#xe606;" d="M449.152 90.419l-96.743 96.743c14.592 23.987 22.989 52.096 22.989 82.227 0 87.45-75.801 163.251-163.277 163.251-87.45 0-158.362-70.912-158.362-158.361 0-87.475 75.776-163.277 163.251-163.277 29.082 0 56.32 7.885 79.744 21.581l97.255-97.28c9.549-9.523 24.96-9.523 34.457 0l24.141 24.115c9.498 9.523 6.041 21.504-3.456 31.002zM102.502 274.279c0 60.544 49.075 109.645 109.619 109.645 60.569 0 114.535-53.965 114.535-114.534s-49.075-109.645-109.645-109.645-114.509 53.965-114.509 114.535z" />
<glyph unicode="&#xe61e;" d="M409.6 256h-307.2c-14.131 0-25.6-11.469-25.6-25.6s11.469-25.6 25.6-25.6h307.2c14.157 0 25.6 11.469 25.6 25.6s-11.443 25.6-25.6 25.6zM102.4 307.2h307.2c14.157 0 25.6 11.469 25.6 25.6s-11.443 25.6-25.6 25.6h-307.2c-14.131 0-25.6-11.469-25.6-25.6s11.469-25.6 25.6-25.6zM409.6 153.6h-307.2c-14.131 0-25.6-11.443-25.6-25.6s11.469-25.6 25.6-25.6h307.2c14.157 0 25.6 11.443 25.6 25.6s-11.443 25.6-25.6 25.6z" />
<glyph unicode="&#xe627;" d="M396.365 193.613c-10.419 10.701-120.192 115.251-120.192 115.251-5.581 5.709-12.877 8.576-20.173 8.576-7.322 0-14.618-2.867-20.173-8.576 0 0-109.773-104.551-120.218-115.251-10.419-10.701-11.136-29.952 0-41.37 11.162-11.392 26.701-12.313 40.345 0l100.045 95.923 100.019-95.923c13.671-12.313 29.235-11.392 40.346 0 11.161 11.443 10.471 30.695 0 41.37z" />
<glyph unicode="&#xe629;" d="M76.8 286.72c-31.104 0-56.32-25.216-56.32-56.32s25.216-56.32 56.32-56.32 56.32 25.216 56.32 56.32c0 31.104-25.216 56.32-56.32 56.32zM256 286.72c-31.104 0-56.32-25.216-56.32-56.32s25.216-56.32 56.32-56.32 56.294 25.216 56.294 56.32c0 31.104-25.19 56.32-56.294 56.32zM435.2 286.72c-31.104 0-56.32-25.216-56.32-56.32s25.216-56.32 56.32-56.32 56.32 25.216 56.32 56.32c0 31.104-25.216 56.32-56.32 56.32z" />
</font></defs></svg>